<svg width="348" height="196" viewBox="0 0 348 196" fill="none" xmlns="http://www.w3.org/2000/svg">
<g clip-path="url(#clip0_480_12597)">
<path d="M178.783 0.680908V152.874L127.278 145.688L64.6681 158.478L64.1636 158.582L14.3477 144.842V12.5182L66.0634 0.680908L122.634 12.5182L124.785 12.0637L178.783 0.680908Z" fill="#FFDE4A"/>
<path d="M170.128 8.99231V145.165L124.046 138.735L68.0263 150.179L67.5746 150.27L23.002 137.978V19.5824L69.2759 8.99231L119.89 19.5824L121.815 19.1766L170.128 8.99231Z" fill="white"/>
<path opacity="0.07" d="M127.278 145.688L64.668 158.478L66.0632 0.680908L122.634 12.5182L124.785 12.0637L127.278 145.688Z" fill="#041967"/>
<g opacity="0.8">
<path opacity="0.3" d="M121.025 29.8513L121.051 74.1354H139.415V55.9567H170.867L174.561 51.2134" stroke="#D6DEED" stroke-width="3" stroke-miterlimit="10"/>
<path opacity="0.3" d="M18.7803 43.908H87.0662L91.2879 42.0056H92.9765V84.7044H122.528L123.795 88.5092V107.745H146.592V131.525" stroke="#D6DEED" stroke-width="3" stroke-miterlimit="10"/>
<path opacity="0.3" d="M101.996 131.525V84.7045" stroke="#D6DEED" stroke-width="3" stroke-miterlimit="10"/>
<path opacity="0.3" d="M174.561 118.982H101.996" stroke="#D6DEED" stroke-width="3" stroke-miterlimit="10"/>
<path opacity="0.3" d="M156.387 29.8513V131.525" stroke="#D6DEED" stroke-width="3" stroke-miterlimit="10"/>
<path opacity="0.3" d="M18.5693 109.994H174.561" stroke="#D6DEED" stroke-width="3" stroke-miterlimit="10"/>
<path opacity="0.3" d="M37.5547 131.525V29.8513" stroke="#D6DEED" stroke-width="3" stroke-miterlimit="10"/>
<path opacity="0.3" d="M73.8145 29.8513V131.525" stroke="#D6DEED" stroke-width="3" stroke-miterlimit="10"/>
<path opacity="0.3" d="M18.7803 55.5339L139.415 55.9567" stroke="#D6DEED" stroke-width="3" stroke-miterlimit="10"/>
<path opacity="0.3" d="M53.8896 30.0352V131.525" stroke="#D6DEED" stroke-width="3" stroke-miterlimit="10"/>
<path opacity="0.3" d="M18.5693 79.0647H73.8144L101.996 109.994" stroke="#D6DEED" stroke-width="3" stroke-miterlimit="10"/>
<path opacity="0.3" d="M108.101 29.8513V84.7044" stroke="#D6DEED" stroke-width="3" stroke-miterlimit="10"/>
<path opacity="0.3" d="M101.996 94.5293H174.561" stroke="#D6DEED" stroke-width="3" stroke-miterlimit="10"/>
</g>
<path d="M123.69 94.1108H102.37V84.8102L122.529 84.7045L123.795 88.2979L123.69 94.1108Z" fill="#008DFF"/>
<path d="M46.2468 108.583H39.0508V105.719L45.855 105.687L46.2824 106.793L46.2468 108.583Z" fill="#C556F8"/>
<path d="M113.136 45.9163C110.041 45.9163 107.073 47.1474 104.885 49.3387C102.696 51.5301 101.467 54.5023 101.467 57.6013C101.467 64.0548 113.136 85.0215 113.136 85.0215C113.136 85.0215 124.804 64.0632 124.804 57.6013C124.804 54.5023 123.575 51.5301 121.387 49.3387C119.198 47.1474 116.23 45.9163 113.136 45.9163V45.9163ZM113.136 62.5857C112.12 62.5857 111.128 62.2842 110.283 61.7193C109.439 61.1544 108.781 60.3515 108.393 59.4122C108.004 58.4728 107.903 57.4392 108.101 56.442C108.299 55.4448 108.788 54.5288 109.506 53.8098C110.224 53.0909 111.138 52.6013 112.134 52.4029C113.13 52.2046 114.162 52.3064 115.1 52.6955C116.038 53.0846 116.84 53.7435 117.404 54.5889C117.968 55.4343 118.269 56.4282 118.269 57.4449C118.269 58.808 117.727 60.115 116.765 61.0786C115.802 62.0422 114.497 62.5836 113.136 62.5836V62.5857Z" fill="#008DFF"/>
<path opacity="0.1" d="M113.136 45.9163C110.041 45.9163 107.073 47.1474 104.885 49.3387C102.696 51.5301 101.467 54.5023 101.467 57.6013C101.467 64.0548 113.136 85.0215 113.136 85.0215C113.136 85.0215 124.804 64.0632 124.804 57.6013C124.804 54.5023 123.575 51.5301 121.387 49.3387C119.198 47.1474 116.23 45.9163 113.136 45.9163V45.9163ZM113.136 62.5857C112.12 62.5857 111.128 62.2842 110.283 61.7193C109.439 61.1544 108.781 60.3515 108.393 59.4122C108.004 58.4728 107.903 57.4392 108.101 56.442C108.299 55.4448 108.788 54.5288 109.506 53.8098C110.224 53.0909 111.138 52.6013 112.134 52.4029C113.13 52.2046 114.162 52.3064 115.1 52.6955C116.038 53.0846 116.84 53.7435 117.404 54.5889C117.968 55.4343 118.269 56.4282 118.269 57.4449C118.269 58.808 117.727 60.115 116.765 61.0786C115.802 62.0422 114.497 62.5836 113.136 62.5836V62.5857Z" fill="#041967"/>
<path d="M42.6666 93.3757C41.7076 93.3757 40.7879 93.7633 40.1098 94.4532C39.4317 95.1431 39.0508 96.0788 39.0508 97.0544C39.0508 99.086 42.6666 105.687 42.6666 105.687C42.6666 105.687 46.2824 99.0887 46.2824 97.0544C46.2824 96.0788 45.9015 95.1431 45.2234 94.4532C44.5453 93.7633 43.6256 93.3757 42.6666 93.3757V93.3757ZM42.6666 98.6236C42.352 98.6236 42.0444 98.5286 41.7828 98.3508C41.5212 98.173 41.3173 97.9202 41.1969 97.6245C41.0765 97.3288 41.045 97.0034 41.1064 96.6894C41.1678 96.3755 41.3193 96.0871 41.5418 95.8608C41.7643 95.6344 42.0477 95.4803 42.3563 95.4179C42.6648 95.3554 42.9847 95.3875 43.2754 95.5099C43.566 95.6324 43.8145 95.8399 43.9893 96.106C44.1641 96.3722 44.2574 96.6851 44.2574 97.0052C44.2572 97.4343 44.0895 97.8457 43.7912 98.1491C43.4929 98.4525 43.0884 98.6229 42.6666 98.6229V98.6236Z" fill="#8105BA"/>
<path d="M113.136 47.6072C110.041 47.6072 107.073 48.8383 104.885 51.0297C102.696 53.221 101.467 56.1932 101.467 59.2923C101.467 65.7457 113.136 86.7125 113.136 86.7125C113.136 86.7125 124.804 65.7541 124.804 59.2923C124.804 56.1932 123.575 53.221 121.387 51.0297C119.198 48.8383 116.23 47.6072 113.136 47.6072V47.6072ZM113.136 64.2766C112.12 64.2766 111.128 63.9751 110.283 63.4102C109.439 62.8454 108.781 62.0425 108.393 61.1031C108.004 60.1638 107.903 59.1301 108.101 58.1329C108.299 57.1357 108.788 56.2197 109.506 55.5008C110.224 54.7818 111.138 54.2922 112.134 54.0939C113.13 53.8955 114.162 53.9973 115.1 54.3864C116.038 54.7755 116.84 55.4344 117.404 56.2798C117.968 57.1252 118.269 58.1191 118.269 59.1358C118.269 60.4989 117.727 61.8059 116.765 62.7695C115.802 63.7332 114.497 64.2745 113.136 64.2745V64.2766Z" fill="#008DFF"/>
<path d="M42.6666 94.0999C41.7076 94.0999 40.7879 94.4646 40.1098 95.1139C39.4317 95.7632 39.0508 96.6439 39.0508 97.5621C39.0508 99.4743 42.6666 105.687 42.6666 105.687C42.6666 105.687 46.2824 99.4768 46.2824 97.5621C46.2824 96.6439 45.9015 95.7632 45.2234 95.1139C44.5453 94.4646 43.6256 94.0999 42.6666 94.0999V94.0999ZM42.6666 99.039C42.352 99.039 42.0444 98.9496 41.7828 98.7823C41.5212 98.6149 41.3173 98.377 41.1969 98.0987C41.0765 97.8204 41.045 97.5141 41.1064 97.2186C41.1678 96.9231 41.3193 96.6517 41.5418 96.4387C41.7643 96.2257 42.0477 96.0806 42.3563 96.0218C42.6648 95.9631 42.9847 95.9932 43.2754 96.1085C43.566 96.2238 43.8145 96.419 43.9893 96.6695C44.1641 96.92 44.2574 97.2145 44.2574 97.5158C44.2572 97.9197 44.0895 98.3069 43.7912 98.5924C43.4929 98.878 43.0884 99.0384 42.6666 99.0384V99.039Z" fill="#C556F8"/>
<path d="M107.947 156.605C108.81 156.605 109.509 155.689 109.509 154.559C109.509 153.429 108.81 152.513 107.947 152.513C107.084 152.513 106.385 153.429 106.385 154.559C106.385 155.689 107.084 156.605 107.947 156.605Z" fill="#041967"/>
<path d="M107.947 154.103C108.81 154.103 109.509 153.186 109.509 152.056C109.509 150.926 108.81 150.01 107.947 150.01C107.084 150.01 106.385 150.926 106.385 152.056C106.385 153.186 107.084 154.103 107.947 154.103Z" fill="#041967"/>
<path d="M107.947 151.602C108.81 151.602 109.509 150.686 109.509 149.556C109.509 148.426 108.81 147.51 107.947 147.51C107.084 147.51 106.385 148.426 106.385 149.556C106.385 150.686 107.084 151.602 107.947 151.602Z" fill="#041967"/>
<path d="M107.947 149.101C108.81 149.101 109.509 148.185 109.509 147.055C109.509 145.925 108.81 145.009 107.947 145.009C107.084 145.009 106.385 145.925 106.385 147.055C106.385 148.185 107.084 149.101 107.947 149.101Z" fill="#041967"/>
<path d="M107.947 146.599C108.81 146.599 109.509 145.683 109.509 144.553C109.509 143.422 108.81 142.506 107.947 142.506C107.084 142.506 106.385 143.422 106.385 144.553C106.385 145.683 107.084 146.599 107.947 146.599Z" fill="#041967"/>
<path d="M107.947 144.098C108.81 144.098 109.509 143.182 109.509 142.052C109.509 140.922 108.81 140.006 107.947 140.006C107.084 140.006 106.385 140.922 106.385 142.052C106.385 143.182 107.084 144.098 107.947 144.098Z" fill="#041967"/>
<path d="M107.947 141.597C108.81 141.597 109.509 140.681 109.509 139.551C109.509 138.421 108.81 137.505 107.947 137.505C107.084 137.505 106.385 138.421 106.385 139.551C106.385 140.681 107.084 141.597 107.947 141.597Z" fill="#041967"/>
<path d="M102.102 122.432C101.889 122.163 101.694 121.881 101.519 121.586L105.623 120.91L101.19 120.943C100.765 120.016 100.533 119.012 100.508 117.992C100.484 116.971 100.667 115.957 101.047 115.01L106.999 118.092L101.511 114.05C102.025 113.16 102.717 112.385 103.543 111.774C104.369 111.163 105.312 110.729 106.313 110.499C107.314 110.269 108.352 110.248 109.362 110.437C110.371 110.626 111.331 111.022 112.181 111.599C113.032 112.176 113.754 112.922 114.304 113.791C114.853 114.66 115.218 115.632 115.376 116.649C115.534 117.665 115.481 118.703 115.22 119.698C114.959 120.693 114.497 121.623 113.862 122.432C114.191 122.855 114.474 123.313 114.706 123.797L109.384 126.568L115.063 124.666C115.461 125.846 115.56 127.107 115.35 128.335C115.139 129.563 114.626 130.719 113.857 131.698C114.725 132.803 115.265 134.13 115.415 135.527C115.566 136.925 115.32 138.337 114.707 139.601C114.094 140.865 113.138 141.931 111.948 142.677C110.759 143.423 109.383 143.818 107.98 143.818C106.576 143.818 105.201 143.423 104.011 142.677C102.822 141.931 101.865 140.865 101.252 139.601C100.639 138.337 100.394 136.925 100.544 135.527C100.694 134.13 101.234 132.803 102.102 131.698C101.065 130.378 100.502 128.748 100.502 127.068C100.502 125.389 101.065 123.758 102.102 122.438V122.432Z" fill="#00AB97"/>
<path opacity="0.1" d="M115.457 127.054C115.46 128.734 114.896 130.366 113.857 131.686C114.725 132.79 115.265 134.117 115.415 135.515C115.566 136.912 115.32 138.324 114.707 139.588C114.094 140.852 113.138 141.918 111.948 142.664C110.759 143.41 109.383 143.806 107.98 143.806C106.576 143.806 105.201 143.41 104.011 142.664C102.822 141.918 101.865 140.852 101.252 139.588C100.639 138.324 100.394 136.912 100.544 135.515C100.694 134.117 101.234 132.79 102.102 131.686C101.099 130.417 115.457 126.221 115.457 127.054Z" fill="#041967"/>
<path d="M10.8987 148.171C12.1496 148.171 13.1637 146.842 13.1637 145.201C13.1637 143.561 12.1496 142.232 10.8987 142.232C9.64784 142.232 8.63379 143.561 8.63379 145.201C8.63379 146.842 9.64784 148.171 10.8987 148.171Z" fill="#041967"/>
<path d="M10.8987 144.542C12.1496 144.542 13.1637 143.212 13.1637 141.572C13.1637 139.932 12.1496 138.602 10.8987 138.602C9.64784 138.602 8.63379 139.932 8.63379 141.572C8.63379 143.212 9.64784 144.542 10.8987 144.542Z" fill="#041967"/>
<path d="M10.8987 140.912C12.1496 140.912 13.1637 139.583 13.1637 137.943C13.1637 136.302 12.1496 134.973 10.8987 134.973C9.64784 134.973 8.63379 136.302 8.63379 137.943C8.63379 139.583 9.64784 140.912 10.8987 140.912Z" fill="#041967"/>
<path d="M10.8987 137.283C12.1496 137.283 13.1637 135.953 13.1637 134.313C13.1637 132.673 12.1496 131.343 10.8987 131.343C9.64784 131.343 8.63379 132.673 8.63379 134.313C8.63379 135.953 9.64784 137.283 10.8987 137.283Z" fill="#041967"/>
<path d="M10.8987 133.654C12.1496 133.654 13.1637 132.324 13.1637 130.684C13.1637 129.044 12.1496 127.714 10.8987 127.714C9.64784 127.714 8.63379 129.044 8.63379 130.684C8.63379 132.324 9.64784 133.654 10.8987 133.654Z" fill="#041967"/>
<path d="M10.8987 130.024C12.1496 130.024 13.1637 128.695 13.1637 127.054C13.1637 125.414 12.1496 124.084 10.8987 124.084C9.64784 124.084 8.63379 125.414 8.63379 127.054C8.63379 128.695 9.64784 130.024 10.8987 130.024Z" fill="#041967"/>
<path d="M10.8987 126.395C12.1496 126.395 13.1637 125.065 13.1637 123.425C13.1637 121.785 12.1496 120.455 10.8987 120.455C9.64784 120.455 8.63379 121.785 8.63379 123.425C8.63379 125.065 9.64784 126.395 10.8987 126.395Z" fill="#041967"/>
<path d="M19.3771 98.5879C19.6871 98.1937 19.9692 97.7784 20.2215 97.345L14.2689 96.3663L20.707 96.4128C21.3246 95.0674 21.6618 93.6101 21.6981 92.1298C21.7344 90.6495 21.469 89.1774 20.9181 87.8033L12.2826 92.2909L20.2426 86.4272C19.497 85.1347 18.4934 84.0099 17.2946 83.1229C16.0957 82.2359 14.7273 81.6057 13.2745 81.2717C11.8217 80.9377 10.3158 80.9069 8.85063 81.1814C7.38547 81.4558 5.99248 82.0296 4.75852 82.867C3.52456 83.7043 2.47609 84.7872 1.67848 86.0482C0.88087 87.3092 0.351226 88.7212 0.122576 90.1962C-0.106074 91.6712 -0.0288275 93.1775 0.349495 94.6213C0.727817 96.0651 1.3991 97.4153 2.3215 98.5879C1.83897 99.2014 1.42424 99.8655 1.08455 100.569L8.81024 104.585L0.57794 101.816C-9.92045e-05 103.528 -0.142806 105.358 0.162725 107.139C0.468255 108.921 1.21239 110.598 2.32783 112.019C1.06903 113.622 0.285954 115.547 0.0681526 117.574C-0.149649 119.601 0.206607 121.649 1.09619 123.483C1.98578 125.317 3.37278 126.863 5.09864 127.945C6.82449 129.027 8.81953 129.601 10.8557 129.601C12.8918 129.601 14.8868 129.027 16.6127 127.945C18.3385 126.863 19.7255 125.317 20.6151 123.483C21.5047 121.649 21.861 119.601 21.6432 117.574C21.4254 115.547 20.6423 113.622 19.3835 112.019C20.8876 110.104 21.7053 107.738 21.7053 105.301C21.7053 102.865 20.8876 100.499 19.3835 98.5836L19.3771 98.5879Z" fill="#00AB97"/>
<path opacity="0.1" d="M1.51792e-05 105.305C-0.00406403 107.743 0.814141 110.11 2.32195 112.023C1.06314 113.626 0.280067 115.551 0.0622654 117.578C-0.155536 119.605 0.20072 121.653 1.0903 123.487C1.97989 125.321 3.3669 126.868 5.09275 127.95C6.8186 129.031 8.81364 129.605 10.8498 129.605C12.8859 129.605 14.8809 129.031 16.6068 127.95C18.3326 126.868 19.7196 125.321 20.6092 123.487C21.4988 121.653 21.8551 119.605 21.6373 117.578C21.4195 115.551 20.6364 113.626 19.3776 112.023C20.832 110.176 1.51792e-05 104.086 1.51792e-05 105.305Z" fill="#041967"/>
</g>
<g clip-path="url(#clip1_480_12597)">
<path fill-rule="evenodd" clip-rule="evenodd" d="M189.521 138.702C195.083 138.702 200.521 140.355 205.147 143.453C209.772 146.551 213.377 150.954 215.506 156.106C217.634 161.257 218.191 166.926 217.106 172.394C216.021 177.863 213.342 182.887 209.409 186.829C205.475 190.772 200.464 193.457 195.008 194.545C189.552 195.633 183.897 195.075 178.757 192.941C173.618 190.807 169.225 187.193 166.135 182.557C163.044 177.921 161.395 172.47 161.395 166.894C161.395 159.417 164.358 152.246 169.632 146.959C174.907 141.672 182.061 138.702 189.521 138.702V138.702ZM189.521 145.934C185.392 145.928 181.354 147.149 177.918 149.444C174.483 151.738 171.803 155.003 170.219 158.824C168.634 162.645 168.216 166.852 169.018 170.912C169.819 174.971 171.804 178.701 174.721 181.63C177.638 184.558 181.356 186.554 185.405 187.363C189.454 188.173 193.651 187.761 197.466 186.178C201.281 184.596 204.542 181.915 206.836 178.475C209.131 175.035 210.355 170.989 210.355 166.851C210.355 161.304 208.157 155.983 204.244 152.061C200.33 148.138 195.022 145.934 189.488 145.934" fill="#041967"/>
<path fill-rule="evenodd" clip-rule="evenodd" d="M189.521 145.934C193.648 145.934 197.682 147.161 201.114 149.46C204.546 151.758 207.22 155.025 208.8 158.847C210.379 162.669 210.792 166.874 209.987 170.932C209.182 174.989 207.194 178.716 204.276 181.641C201.358 184.566 197.64 186.559 193.592 187.366C189.544 188.173 185.348 187.758 181.535 186.175C177.722 184.592 174.463 181.911 172.17 178.472C169.877 175.032 168.653 170.988 168.653 166.851C168.653 161.304 170.852 155.983 174.765 152.061C178.679 148.138 183.986 145.934 189.521 145.934V145.934ZM189.521 153.807C186.953 153.807 184.443 154.57 182.309 156C180.174 157.429 178.51 159.461 177.528 161.839C176.545 164.217 176.288 166.833 176.789 169.357C177.29 171.881 178.526 174.2 180.342 176.019C182.157 177.839 184.47 179.078 186.988 179.58C189.506 180.082 192.116 179.825 194.488 178.84C196.86 177.855 198.888 176.187 200.314 174.047C201.741 171.908 202.502 169.392 202.502 166.818C202.502 163.368 201.134 160.058 198.7 157.618C196.265 155.178 192.964 153.807 189.521 153.807Z" fill="#D6DEED"/>
<path d="M189.521 181.652C186.6 181.654 183.744 180.788 181.315 179.163C178.885 177.538 176.991 175.227 175.871 172.523C174.752 169.818 174.458 166.842 175.027 163.97C175.595 161.098 177.001 158.46 179.065 156.389C181.13 154.318 183.761 152.907 186.626 152.335C189.49 151.763 192.46 152.056 195.159 153.176C197.857 154.296 200.164 156.193 201.787 158.627C203.41 161.061 204.277 163.923 204.277 166.851C204.277 170.775 202.722 174.538 199.955 177.313C197.189 180.088 193.435 181.649 189.521 181.652V181.652ZM189.521 147.691C185.741 147.691 182.045 148.815 178.901 150.92C175.758 153.025 173.308 156.018 171.861 159.519C170.415 163.02 170.036 166.872 170.774 170.589C171.511 174.306 173.332 177.72 176.005 180.399C178.678 183.079 182.084 184.904 185.792 185.643C189.5 186.382 193.343 186.003 196.836 184.553C200.329 183.102 203.314 180.647 205.415 177.496C207.515 174.345 208.636 170.641 208.636 166.851C208.636 161.769 206.622 156.896 203.037 153.303C199.453 149.71 194.591 147.691 189.521 147.691Z" fill="#D6DEED"/>
<path fill-rule="evenodd" clip-rule="evenodd" d="M186.968 162.21C187.312 162.024 187.675 161.875 188.05 161.766L188.742 152.646H190.289L190.992 161.766C191.367 161.877 191.729 162.026 192.074 162.21L198.997 156.257L199.549 156.81L200.09 157.352L194.129 164.303C194.314 164.648 194.462 165.012 194.573 165.387L203.671 166.092V167.643L194.573 168.337C194.465 168.713 194.316 169.077 194.129 169.421L200.057 176.371L199.517 176.914L198.965 177.467L192.042 171.514C191.697 171.698 191.334 171.847 190.96 171.958L190.257 181.077H188.72L188.028 171.958C187.653 171.849 187.29 171.7 186.946 171.514L180.023 177.467L179.471 176.914L178.93 176.371L184.869 169.421C184.679 169.079 184.53 168.715 184.426 168.337L175.328 167.643V166.038L184.426 165.333C184.532 164.956 184.68 164.592 184.869 164.249L178.985 157.363L179.525 156.821L180.066 156.279L186.968 162.21Z" fill="#D6DEED"/>
<path fill-rule="evenodd" clip-rule="evenodd" d="M310.96 173.205C312.214 173.203 313.438 172.829 314.479 172.129C315.52 171.43 316.331 170.436 316.809 169.275C317.287 168.114 317.411 166.837 317.166 165.605C316.92 164.373 316.315 163.242 315.428 162.354C314.541 161.467 313.412 160.863 312.182 160.618C310.953 160.374 309.679 160.5 308.521 160.982C307.363 161.463 306.374 162.277 305.678 163.322C304.982 164.367 304.61 165.595 304.61 166.851C304.613 168.537 305.283 170.153 306.474 171.345C307.665 172.536 309.278 173.205 310.96 173.205V173.205Z" fill="#A9C2C2"/>
<path fill-rule="evenodd" clip-rule="evenodd" d="M315.395 162.362C316.282 163.251 316.885 164.383 317.129 165.615C317.373 166.848 317.248 168.125 316.768 169.286C316.288 170.447 315.475 171.439 314.433 172.137C313.39 172.835 312.165 173.208 310.911 173.208C309.658 173.208 308.432 172.835 307.39 172.137C306.348 171.439 305.535 170.447 305.055 169.286C304.575 168.125 304.45 166.848 304.694 165.615C304.938 164.383 305.541 163.251 306.428 162.362C307.016 161.771 307.715 161.303 308.485 160.983C309.254 160.664 310.079 160.499 310.911 160.499C311.744 160.499 312.569 160.664 313.338 160.983C314.108 161.303 314.807 161.771 315.395 162.362V162.362Z" fill="#A9C2C2"/>
<path fill-rule="evenodd" clip-rule="evenodd" d="M317.257 166.851C317.259 168.111 316.888 169.343 316.191 170.391C315.494 171.44 314.502 172.257 313.342 172.74C312.181 173.223 310.903 173.35 309.67 173.105C308.438 172.86 307.305 172.253 306.416 171.363C305.528 170.472 304.923 169.337 304.678 168.101C304.433 166.865 304.56 165.585 305.042 164.421C305.524 163.258 306.34 162.264 307.385 161.565C308.431 160.867 309.661 160.495 310.917 160.497C312.599 160.497 314.211 161.166 315.4 162.358C316.589 163.55 317.257 165.166 317.257 166.851V166.851Z" fill="#A9C2C2"/>
<path fill-rule="evenodd" clip-rule="evenodd" d="M315.395 171.351C314.509 172.239 313.379 172.844 312.15 173.089C310.92 173.334 309.646 173.208 308.488 172.726C307.329 172.245 306.34 171.431 305.643 170.386C304.947 169.341 304.575 168.113 304.575 166.856C304.575 165.6 304.947 164.372 305.643 163.327C306.34 162.282 307.329 161.467 308.488 160.986C309.646 160.505 310.92 160.379 312.15 160.624C313.379 160.869 314.509 161.474 315.395 162.362C315.984 162.952 316.452 163.653 316.771 164.424C317.089 165.195 317.254 166.022 317.254 166.856C317.254 167.691 317.089 168.518 316.771 169.289C316.452 170.06 315.984 170.761 315.395 171.351Z" fill="#A9C2C2"/>
<path fill-rule="evenodd" clip-rule="evenodd" d="M310.96 173.205C309.707 173.205 308.481 172.832 307.438 172.134C306.396 171.436 305.583 170.444 305.104 169.283C304.624 168.122 304.498 166.844 304.743 165.611C304.988 164.379 305.591 163.247 306.478 162.358C307.364 161.469 308.494 160.864 309.724 160.619C310.953 160.374 312.228 160.5 313.386 160.981C314.545 161.461 315.535 162.276 316.231 163.321C316.928 164.366 317.299 165.594 317.299 166.851C317.299 168.536 316.632 170.152 315.443 171.344C314.254 172.536 312.642 173.205 310.96 173.205V173.205Z" fill="#A9C2C2"/>
<path fill-rule="evenodd" clip-rule="evenodd" d="M306.428 171.351C305.541 170.462 304.938 169.33 304.694 168.097C304.45 166.865 304.575 165.588 305.055 164.427C305.535 163.266 306.348 162.274 307.39 161.576C308.432 160.878 309.658 160.505 310.911 160.505C312.165 160.505 313.39 160.878 314.433 161.576C315.475 162.274 316.288 163.266 316.768 164.427C317.248 165.588 317.373 166.865 317.129 168.097C316.885 169.33 316.282 170.462 315.395 171.351C314.807 171.941 314.108 172.41 313.338 172.729C312.569 173.049 311.744 173.213 310.911 173.213C310.079 173.213 309.254 173.049 308.485 172.729C307.715 172.41 307.016 171.941 306.428 171.351V171.351Z" fill="#A9C2C2"/>
<path fill-rule="evenodd" clip-rule="evenodd" d="M304.567 166.851C304.565 165.591 304.936 164.359 305.633 163.311C306.33 162.262 307.322 161.445 308.482 160.962C309.643 160.479 310.921 160.352 312.154 160.597C313.386 160.842 314.519 161.449 315.408 162.339C316.296 163.23 316.901 164.365 317.146 165.601C317.391 166.837 317.264 168.117 316.782 169.281C316.3 170.444 315.484 171.438 314.439 172.137C313.393 172.836 312.163 173.207 310.907 173.205C310.074 173.205 309.25 173.041 308.481 172.721C307.712 172.402 307.013 171.934 306.424 171.344C305.835 170.754 305.369 170.054 305.05 169.283C304.731 168.512 304.567 167.685 304.567 166.851V166.851Z" fill="#D6DEED"/>
<path fill-rule="evenodd" clip-rule="evenodd" d="M310.96 138.702C316.523 138.702 321.961 140.355 326.586 143.453C331.211 146.551 334.816 150.954 336.945 156.106C339.074 161.257 339.631 166.926 338.546 172.394C337.46 177.863 334.782 182.887 330.848 186.829C326.915 190.772 321.903 193.457 316.447 194.545C310.991 195.633 305.336 195.075 300.197 192.941C295.057 190.807 290.665 187.193 287.574 182.557C284.484 177.921 282.834 172.47 282.834 166.894C282.834 159.417 285.797 152.246 291.072 146.959C296.347 141.672 303.501 138.702 310.96 138.702V138.702ZM310.96 145.934C306.833 145.934 302.798 147.161 299.367 149.459C295.935 151.758 293.261 155.025 291.681 158.847C290.102 162.669 289.688 166.874 290.494 170.932C291.299 174.989 293.286 178.716 296.205 181.641C299.123 184.566 302.841 186.559 306.889 187.366C310.937 188.173 315.133 187.758 318.946 186.175C322.759 184.592 326.018 181.911 328.311 178.472C330.604 175.032 331.827 170.988 331.827 166.851C331.825 161.304 329.625 155.986 325.712 152.064C321.8 148.142 316.494 145.937 310.96 145.934" fill="#041967"/>
<path fill-rule="evenodd" clip-rule="evenodd" d="M310.96 145.934C315.087 145.937 319.12 147.165 322.551 149.465C325.981 151.764 328.654 155.032 330.231 158.854C331.809 162.676 332.221 166.882 331.414 170.938C330.608 174.995 328.62 178.721 325.701 181.645C322.782 184.569 319.064 186.56 315.016 187.366C310.969 188.173 306.774 187.758 302.961 186.174C299.149 184.591 295.891 181.91 293.598 178.47C291.306 175.031 290.082 170.987 290.082 166.851C290.082 164.103 290.622 161.383 291.671 158.844C292.721 156.306 294.259 153.999 296.198 152.057C298.137 150.115 300.438 148.574 302.971 147.524C305.504 146.473 308.219 145.933 310.96 145.934V145.934ZM310.96 153.807C308.393 153.807 305.883 154.57 303.748 156C301.613 157.429 299.95 159.461 298.967 161.839C297.985 164.217 297.728 166.833 298.228 169.357C298.729 171.881 299.966 174.2 301.781 176.019C303.597 177.839 305.91 179.078 308.428 179.58C310.946 180.082 313.556 179.825 315.928 178.84C318.3 177.855 320.327 176.187 321.754 174.047C323.18 171.908 323.941 169.392 323.941 166.818C323.941 163.368 322.574 160.058 320.139 157.618C317.705 155.178 314.403 153.807 310.96 153.807Z" fill="#D6DEED"/>
<path d="M310.961 181.652C308.04 181.654 305.184 180.788 302.754 179.163C300.324 177.538 298.43 175.227 297.311 172.523C296.191 169.818 295.897 166.842 296.466 163.97C297.035 161.098 298.44 158.46 300.505 156.389C302.569 154.318 305.2 152.907 308.065 152.335C310.93 151.763 313.899 152.056 316.598 153.176C319.297 154.296 321.604 156.193 323.227 158.627C324.85 161.061 325.716 163.923 325.716 166.851C325.716 170.775 324.162 174.538 321.395 177.313C318.628 180.088 314.875 181.649 310.961 181.652V181.652ZM310.961 147.691C307.18 147.691 303.484 148.815 300.341 150.92C297.198 153.025 294.748 156.018 293.301 159.519C291.854 163.02 291.475 166.872 292.213 170.589C292.951 174.306 294.771 177.72 297.444 180.399C300.118 183.079 303.524 184.904 307.231 185.643C310.939 186.382 314.783 186.003 318.276 184.553C321.768 183.102 324.754 180.647 326.854 177.496C328.954 174.345 330.075 170.641 330.075 166.851C330.073 161.77 328.058 156.899 324.474 153.306C320.89 149.713 316.029 147.694 310.961 147.691" fill="#D6DEED"/>
<path fill-rule="evenodd" clip-rule="evenodd" d="M308.364 162.21C308.709 162.026 309.071 161.877 309.446 161.766L310.149 152.646H311.696L312.399 161.766C312.774 161.877 313.137 162.026 313.481 162.21L320.404 156.257L320.956 156.81L321.497 157.352L315.558 164.303C315.752 164.644 315.901 165.008 316.002 165.387L325.099 166.092V167.643L316.002 168.337C315.903 168.716 315.753 169.081 315.558 169.421L321.497 176.371L320.956 176.914L320.404 177.467L313.481 171.514C313.137 171.698 312.774 171.847 312.399 171.958L311.696 181.077H310.149L309.446 171.958C309.071 171.847 308.709 171.698 308.364 171.514L301.441 177.467L300.889 176.914L300.348 176.371L306.287 169.421C306.092 169.081 305.943 168.716 305.844 168.337L296.746 167.643V166.038L305.844 165.333C305.945 164.954 306.094 164.59 306.287 164.249L300.348 157.363L300.889 156.821L301.441 156.268L308.364 162.21Z" fill="#D6DEED"/>
<path fill-rule="evenodd" clip-rule="evenodd" d="M286.935 131.339L292.03 128.39L313.243 165.734C314.044 167.133 313.319 168.608 312.161 169.757C311.004 170.906 308.916 170.082 308.148 168.673L286.935 131.339Z" fill="#041967"/>
<path fill-rule="evenodd" clip-rule="evenodd" d="M310.961 130.862C314.151 130.858 317.327 131.281 320.405 132.12C320.844 132.237 321.246 132.468 321.568 132.79C321.889 133.112 322.12 133.514 322.237 133.955C322.353 134.395 322.351 134.859 322.231 135.299C322.11 135.738 321.876 136.138 321.551 136.458L280.563 177.467C280.247 177.795 279.849 178.034 279.41 178.157C278.971 178.28 278.507 178.284 278.067 178.168C277.626 178.052 277.224 177.821 276.902 177.497C276.58 177.174 276.35 176.77 276.236 176.328C274.782 170.991 274.576 165.389 275.633 159.959C276.69 154.529 278.982 149.416 282.331 145.017C285.68 140.619 289.995 137.054 294.942 134.599C299.888 132.144 305.333 130.866 310.853 130.862H310.961Z" fill="#CA8E03"/>
<path fill-rule="evenodd" clip-rule="evenodd" d="M188.439 123.836L244.15 123.012C233.635 143.722 233.17 158.686 244.15 171.177H218.631L216.846 169.388H155.347C154.604 169.387 153.87 169.227 153.194 168.919C152.518 168.61 151.915 168.161 151.426 167.601C150.936 167.041 150.572 166.382 150.356 165.669C150.141 164.957 150.08 164.206 150.176 163.468C152.978 142.443 165.797 126.829 186.178 125.744C188.612 125.614 188.904 124.378 188.439 123.836Z" fill="#CA8E03"/>
<path fill-rule="evenodd" clip-rule="evenodd" d="M235.691 168.358H238.482C229.915 154.989 233.073 140.166 239.564 125.896H237.401C236.464 125.889 235.548 126.169 234.775 126.698C234.002 127.227 233.408 127.98 233.073 128.856C228.205 141.196 226.247 153.796 231.332 165.506C231.683 166.37 232.289 167.105 233.068 167.614C233.846 168.124 234.762 168.383 235.691 168.358V168.358Z" fill="#EDD04C"/>
<path fill-rule="evenodd" clip-rule="evenodd" d="M218.09 169.931H242.971C250.879 169.931 261.491 171.069 266.456 162.807L288.243 126.525C291.013 121.917 291.045 118.393 289.541 112.115L284.554 91.3064C284.122 89.4522 283.916 87.9992 285.636 87.9992H287.919C288.969 87.989 289.992 88.3379 290.818 88.9884C291.644 89.6389 292.224 90.5521 292.462 91.5775L296.897 109.751C297.785 113.437 300.813 125.582 298.888 128.835L272.211 173.682H217.582C217.818 172.442 217.988 171.189 218.09 169.931V169.931Z" fill="#EDD04C"/>
<path d="M271.627 173.379H217.149C216.785 173.379 216.489 173.675 216.489 174.04V176.48C216.489 176.845 216.785 177.141 217.149 177.141H271.627C271.992 177.141 272.287 176.845 272.287 176.48V174.04C272.287 173.675 271.992 173.379 271.627 173.379Z" fill="#CA8E03"/>
<path fill-rule="evenodd" clip-rule="evenodd" d="M189.445 129.67C199.042 129.662 208.315 133.145 215.543 139.473C222.771 145.801 227.462 154.543 228.746 164.075C228.834 164.738 228.779 165.412 228.586 166.052C228.393 166.692 228.066 167.283 227.627 167.786C227.188 168.289 226.646 168.692 226.039 168.969C225.431 169.245 224.772 169.388 224.105 169.388H154.872C154.206 169.387 153.548 169.242 152.942 168.965C152.336 168.688 151.796 168.285 151.357 167.782C150.919 167.279 150.593 166.688 150.401 166.049C150.208 165.41 150.154 164.737 150.242 164.075C151.523 154.559 156.201 145.831 163.408 139.505C170.616 133.18 179.866 129.686 189.445 129.67V129.67Z" fill="#EDD04C"/>
<path fill-rule="evenodd" clip-rule="evenodd" d="M189.446 133.508C197.589 133.508 205.455 136.469 211.586 141.841C217.717 147.212 221.697 154.631 222.786 162.72C222.867 163.282 222.824 163.855 222.659 164.398C222.495 164.942 222.213 165.442 221.834 165.864C221.738 165.981 221.633 166.089 221.52 166.19C219.357 159.364 215.083 153.406 209.316 149.177C203.55 144.948 196.59 142.669 189.446 142.669C182.301 142.669 175.341 144.948 169.575 149.177C163.808 153.406 159.534 159.364 157.371 166.19C157.263 166.096 157.155 165.987 157.047 165.864C156.667 165.443 156.385 164.942 156.223 164.398C156.06 163.854 156.02 163.281 156.105 162.72C157.195 154.631 161.174 147.212 167.305 141.841C173.436 136.469 181.303 133.508 189.446 133.508V133.508Z" fill="#CA8E03"/>
<path d="M244.378 113.524H187.455C186.774 113.524 186.222 114.078 186.222 114.76V122.6C186.222 123.283 186.774 123.836 187.455 123.836H244.378C245.059 123.836 245.611 123.283 245.611 122.6V114.76C245.611 114.078 245.059 113.524 244.378 113.524Z" fill="black"/>
<path d="M211.903 51.0673H146.315C145.036 51.0673 144 52.1062 144 53.3877V111.074C144 112.355 145.036 113.394 146.315 113.394H211.903C213.181 113.394 214.218 112.355 214.218 111.074V53.3877C214.218 52.1062 213.181 51.0673 211.903 51.0673Z" fill="#041967"/>
<path d="M185.782 74.6638C185.78 76.2644 185.144 77.7991 184.011 78.9305C182.879 80.0619 181.344 80.6975 179.743 80.6975V87.6258C183.182 87.6254 186.48 86.2591 188.912 83.8274C191.343 81.3957 192.71 78.0977 192.71 74.6588H185.782V74.6638Z" fill="white"/>
<path d="M185.782 74.6623H192.71C192.71 71.2234 191.343 67.9254 188.912 65.4937C186.48 63.0621 183.182 61.6957 179.743 61.6953V68.6237C181.345 68.6237 182.881 69.2599 184.013 70.3924C185.146 71.5248 185.782 73.0608 185.782 74.6623V74.6623Z" fill="white"/>
<path d="M179.742 80.6975C178.949 80.6975 178.164 80.5412 177.432 80.2378C176.699 79.9343 176.034 79.4894 175.473 78.9287C174.912 78.3679 174.468 77.7022 174.164 76.9696C173.861 76.2369 173.705 75.4517 173.705 74.6588H166.785V99.7031H173.705V93.6678C173.731 92.0837 174.379 90.5734 175.509 89.4624C176.638 88.3515 178.159 87.7289 179.743 87.7289C181.327 87.7289 182.848 88.3515 183.978 89.4624C185.107 90.5734 185.755 92.0837 185.781 93.6678V99.7064H192.709V93.6678C192.71 91.9646 192.375 90.2781 191.723 88.7045C191.072 87.1309 190.117 85.701 188.913 84.4966C187.708 83.2921 186.279 82.3367 184.705 81.6848C183.132 81.033 181.445 80.6975 179.742 80.6975Z" fill="#4392CF"/>
<path fill-rule="evenodd" clip-rule="evenodd" d="M300.879 95.7846C302.296 95.6653 303.702 98.6147 304.016 102.356C304.329 106.097 303.442 109.252 302.025 109.371C300.608 109.49 299.202 106.541 298.877 102.8C298.553 99.0593 299.461 95.9147 300.879 95.7846Z" fill="#EDD04C"/>
<path fill-rule="evenodd" clip-rule="evenodd" d="M300.305 94.8955C300.427 94.882 300.551 94.8929 300.669 94.9277C300.787 94.9624 300.897 95.0203 300.993 95.098C301.088 95.1756 301.167 95.2715 301.226 95.3801C301.284 95.4886 301.32 95.6077 301.333 95.7304L302.869 109.187C302.89 109.312 302.886 109.44 302.856 109.563C302.827 109.687 302.772 109.803 302.696 109.904C302.62 110.006 302.524 110.091 302.414 110.154C302.305 110.217 302.183 110.257 302.057 110.271V110.271C297.287 110.824 293.025 107.831 292.549 103.603C292.073 99.3738 295.534 95.4377 300.305 94.8955Z" fill="#CA8E03"/>
<path fill-rule="evenodd" clip-rule="evenodd" d="M298.802 95.1883L300.76 110.282C301.19 110.292 301.62 110.271 302.047 110.217C302.173 110.203 302.294 110.163 302.404 110.099C302.514 110.036 302.61 109.951 302.686 109.85C302.762 109.748 302.816 109.633 302.846 109.509C302.876 109.386 302.88 109.258 302.858 109.133L301.322 95.6762C301.31 95.5535 301.274 95.4344 301.215 95.3259C301.157 95.2173 301.078 95.1214 300.982 95.0438C300.887 94.9661 300.777 94.9083 300.659 94.8735C300.541 94.8387 300.417 94.8278 300.295 94.8413V94.8413C299.788 94.9112 299.288 95.0273 298.802 95.1883V95.1883Z" fill="#9DC6C6"/>
<path d="M275.428 87.7038L275.159 88.754C275.02 89.2934 275.344 89.8431 275.883 89.9817L286.213 92.6423C286.751 92.7809 287.3 92.456 287.438 91.9165L287.707 90.8663C287.846 90.3269 287.521 89.7773 286.983 89.6387L276.653 86.9781C276.114 86.8395 275.566 87.1644 275.428 87.7038Z" fill="black"/>
<path d="M244.539 162.405C244.052 163.347 243.671 164.339 243.404 165.365C243.269 165.879 243.238 166.414 243.314 166.94C243.391 167.465 243.572 167.97 243.847 168.423C244.929 170.093 247.352 170.136 249.353 170.006L252.317 169.822C253.572 169.735 255.043 169.529 255.671 168.434C256.298 167.339 255.844 166.265 255.519 165.181C254.778 162.721 254.413 160.161 254.438 157.591C254.506 156.834 254.425 156.072 254.2 155.346C253.976 154.866 253.645 154.444 253.232 154.114C252.819 153.783 252.336 153.551 251.82 153.438C249.516 152.809 247.763 152.863 247.147 155.075C246.471 157.583 245.599 160.034 244.539 162.405Z" fill="#191213"/>
<path d="M252.383 128.087C252.938 128.61 253.358 129.261 253.605 129.984C253.731 130.681 253.672 131.399 253.432 132.066C252.556 135.048 250.609 137.748 250.436 140.849C250.459 141.779 250.423 142.71 250.327 143.636C250.066 144.655 249.635 145.623 249.051 146.498L246.941 150.055C246.436 150.747 246.146 151.573 246.108 152.43C246.206 154.045 247.947 154.967 249.473 155.477C250.36 155.769 251.463 155.986 252.112 155.314C252.36 155.022 252.538 154.677 252.632 154.305L260.583 130.678C261.242 128.705 261.902 126.536 261.167 124.595C260.366 122.426 258.138 121.255 256.093 120.258L250.381 117.46C248.716 116.636 246.455 115.921 245.232 117.319C243.523 119.271 245.167 120.876 246.563 121.917C248.716 123.532 250.565 126.113 252.383 128.087Z" fill="#041967"/>
<path d="M248.466 163.121C247.67 164.741 247.276 166.531 247.32 168.337C247.334 168.734 247.478 169.115 247.731 169.421C247.992 169.629 248.3 169.77 248.629 169.833C254.214 171.319 260.059 171.545 265.742 170.494C266.572 170.404 267.367 170.11 268.057 169.638C268.393 169.401 268.646 169.064 268.778 168.674C268.91 168.284 268.915 167.862 268.793 167.469C268.382 166.526 267.17 166.298 266.153 166.19C264.315 166.072 262.518 165.593 260.863 164.78C260.049 164.366 259.354 163.751 258.845 162.991C258.335 162.232 258.029 161.355 257.953 160.443C257.953 159.044 258.548 157.352 257.499 156.431C256.95 156.053 256.293 155.863 255.628 155.889C253.464 155.748 252.274 155.271 250.944 156.886C249.764 158.22 249.137 161.386 248.466 163.121Z" fill="#281B1C"/>
<path d="M220.448 71.0187C215.721 79.9318 213.33 89.8642 210.983 99.6773C210.704 100.53 210.641 101.439 210.799 102.323C210.897 102.758 211.15 103.142 211.51 103.404C211.871 103.665 212.314 103.786 212.757 103.744V106.281C213.403 107.109 214.222 107.786 215.156 108.263C216.09 108.741 217.118 109.008 218.166 109.046C220.244 109.127 222.322 108.896 224.332 108.363L237.519 105.565C238.418 105.486 239.265 105.104 239.92 104.481C240.483 103.776 240.277 102.442 239.379 102.312C242.506 101.748 243.815 98.0725 244.539 94.9822C245.264 91.8919 246 88.7799 246.703 85.6787C248.034 80.7915 248.836 75.7746 249.094 70.7151C249.094 66.9634 248.78 62.6911 251.419 60.0454C252.252 59.2213 253.356 58.5816 253.767 57.4864C254.394 55.8165 253.096 54.0816 251.874 52.7588L247.136 47.554C246.917 47.244 246.588 47.0304 246.216 46.9576C246 46.9791 245.792 47.0475 245.605 47.1579C245.418 47.2684 245.257 47.4184 245.134 47.5974C243.275 49.7307 240.965 51.4232 238.373 52.5527C235.724 53.8655 233.255 55.5166 231.028 57.4647C226.95 60.9779 222.471 65.9441 220.448 71.0187Z" fill="#EF3900"/>
<path d="M228.887 77.6874C228.248 83.2716 229.601 89.3872 233.733 93.1823C236.629 95.6514 240.23 97.1392 244.021 97.4328C247.787 97.7091 251.573 97.5892 255.314 97.075C255.542 96.6413 255.78 96.2184 256.018 95.7847L258.7 96.728L259.674 95.557C259.85 96.0292 260.193 96.4202 260.638 96.656C261.082 96.8918 261.598 96.956 262.086 96.8364C262.389 94.2371 263.147 91.7118 264.326 89.3763C257.51 88.0209 250.609 86.6438 244.378 83.5535C243.455 82.9366 242.34 82.6782 241.241 82.827C242.06 78.2744 242.282 73.6339 241.9 69.0236C241.717 66.855 241.349 64.5345 239.942 62.843C233.333 54.9166 229.298 74.0332 228.887 77.6874Z" fill="#EF3900"/>
<path d="M242.258 66.1718C242.125 65.0961 241.841 64.0448 241.414 63.0489C240.927 62.0405 239.856 61.0755 238.796 61.4333C237.498 61.867 237.465 63.667 237.714 65.0116C238.356 68.944 238.998 72.8801 239.64 76.8198C240.094 79.6174 240.538 82.5559 239.64 85.2341L241.436 85.0498C241.436 85.7221 241.522 86.3835 241.555 87.0449C246.2 88.4014 250.969 89.2878 255.791 89.6907C255.693 87.9124 253.497 87.2076 251.766 86.8064C249.646 86.3564 247.587 85.6538 245.633 84.7137C243.264 83.5101 243.567 83.0763 243.534 80.3764C243.473 75.6157 243.046 70.8668 242.258 66.1718V66.1718Z" fill="#F8F8FE"/>
<path d="M249.299 59.6117C250.333 58.8674 251.274 58.0009 252.101 57.031L249.602 53.8973C249.484 53.7275 249.328 53.5866 249.148 53.4853C248.964 53.416 248.764 53.4016 248.572 53.444C248.38 53.4863 248.204 53.5835 248.066 53.7238C247.715 54.088 247.482 54.5498 247.397 55.0489C247.312 55.548 247.379 56.0612 247.59 56.5214C248.025 57.4369 248.644 58.2527 249.408 58.9177" fill="#EF3900"/>
<path d="M239.628 101.651C238.675 102.289 237.513 102.537 236.383 102.345C235.82 102.366 235.262 102.243 234.76 101.987C234.509 101.859 234.318 101.638 234.227 101.37C234.136 101.103 234.153 100.811 234.273 100.556C234.443 100.352 234.66 100.193 234.905 100.093C235.15 99.9931 235.416 99.9545 235.68 99.981C236.441 99.986 237.199 99.8801 237.93 99.6665C238.294 99.5554 238.625 99.3541 238.892 99.0812C239.158 98.8083 239.352 98.4727 239.455 98.1051C239.61 98.0399 239.777 98.0077 239.945 98.0105C240.112 98.0134 240.278 98.0511 240.431 98.1215C240.583 98.1919 240.72 98.2932 240.831 98.4192C240.942 98.5452 241.026 98.693 241.078 98.8533C241.163 99.185 241.16 99.5331 241.071 99.8637C240.982 100.194 240.809 100.496 240.569 100.74C240.088 101.224 239.524 101.617 238.903 101.9" fill="#F8F8FE"/>
<path d="M218.416 114.836C221.347 116.538 224.83 117.005 228.151 117.352L239.413 118.664C244.605 119.26 250.382 120.182 253.562 124.346C253.821 124.834 254.242 125.218 254.752 125.43C255.344 125.46 255.934 125.332 256.461 125.061C257.024 124.899 257.824 125.061 257.889 125.658C257.584 125.94 257.346 126.287 257.19 126.674C257.035 127.06 256.967 127.476 256.991 127.891L258.268 127.674C258.338 128.742 257.984 129.795 257.284 130.602C255.499 133.413 254.408 136.61 254.103 139.927C253.898 142.28 254.049 144.796 252.827 146.802C252.275 147.713 251.474 148.461 250.901 149.361C250.333 150.25 250.019 151.278 249.993 152.333C249.967 153.388 250.229 154.43 250.752 155.346C251.275 156.263 252.038 157.018 252.959 157.53C253.879 158.042 254.922 158.292 255.975 158.252C259.285 157.981 261.513 154.826 263.114 151.898C268.147 143.019 271.413 133.246 272.731 123.12C273.019 121.448 272.953 119.734 272.537 118.089C271.39 114.457 267.495 112.559 263.947 111.149C257.947 108.764 251.857 106.624 245.676 104.73C244.009 104.177 242.286 103.813 240.538 103.646C238.97 103.601 237.402 103.702 235.854 103.95L217.961 106.303C215.192 106.671 212.963 106.216 213.948 109.621C214.731 111.859 216.326 113.721 218.416 114.836V114.836Z" fill="#008DFF"/>
<path d="M258.624 114.272C260.444 114.847 262.138 115.767 263.611 116.983C266.943 120.138 266.662 125.549 265.234 129.908C263.806 134.267 261.48 138.474 261.512 143.061C262.183 143.668 263.157 142.757 263.578 141.977C266.677 136.067 268.671 129.64 269.463 123.012C269.836 121.284 269.615 119.48 268.836 117.894C267.922 116.679 266.685 115.747 265.266 115.205C258.354 111.822 249.591 107.062 241.878 106.237C241.727 109.653 255.79 113.155 258.624 114.272Z" fill="#041967"/>
<path d="M268.144 95.8714C268.831 95.9221 269.522 95.8857 270.2 95.7629C272.742 95.1557 274.181 92.2172 276.69 91.4798C276.847 91.4417 277.01 91.4417 277.166 91.4798C277.391 91.5455 277.588 91.6825 277.729 91.8702C278.096 92.3573 278.517 92.8011 278.984 93.1931C279.221 93.3754 279.503 93.4899 279.801 93.5242C280.098 93.5586 280.399 93.5116 280.671 93.3883C280.804 93.3204 280.92 93.222 281.008 93.1011C281.096 92.9802 281.155 92.8402 281.179 92.6924C281.203 92.5446 281.192 92.3931 281.147 92.2503C281.102 92.1075 281.025 91.9773 280.92 91.8702C280.982 91.9984 281.07 92.1129 281.176 92.2073C281.283 92.3018 281.407 92.3742 281.542 92.4205C281.676 92.4668 281.819 92.4861 281.961 92.4773C282.103 92.4685 282.242 92.4316 282.37 92.369C282.497 92.3063 282.612 92.2191 282.706 92.1121C282.8 92.0052 282.872 91.8807 282.919 91.7458C282.965 91.6109 282.984 91.4681 282.975 91.3258C282.966 91.1834 282.93 91.0442 282.867 90.916C282.998 91.1215 283.188 91.2824 283.412 91.3773C283.636 91.4722 283.884 91.4966 284.122 91.4473C284.357 91.3893 284.57 91.2606 284.73 91.0785C284.891 90.8963 284.992 90.6694 285.02 90.428C285.096 89.7124 284.522 89.116 284.046 88.5847C283.354 87.804 282.77 86.9257 282.045 86.1775C281.354 85.3756 280.405 84.8422 279.362 84.6703C278.533 84.6271 277.705 84.7716 276.939 85.0932C275.173 85.6999 273.465 86.4619 271.833 87.3703C270.573 88.1491 269.269 88.8551 267.928 89.4847C266.579 90.1188 265.068 90.3195 263.601 90.0594C262.703 89.8642 261.437 94.7003 261.816 95.3834C262.195 96.0665 263.806 95.7196 264.477 95.7412L268.144 95.8714Z" fill="#EDB38C"/>
<path d="M273.391 39.7144C274.04 40.7988 275.555 41.1457 276.041 42.2734C275.142 42.6273 274.329 43.1705 273.657 43.8664C272.985 44.5623 272.47 45.3946 272.147 46.3071C271.39 48.4757 271.693 51.1323 270.135 52.813C268.729 54.3202 266.349 54.4178 264.347 53.8974C262.346 53.3769 260.453 52.4552 258.409 52.2383C257.129 52.1116 255.838 52.277 254.631 52.7221C253.424 53.1672 252.334 53.8804 251.442 54.8082C251.031 55.2419 250.544 55.7732 249.949 55.6648C249.552 55.5432 249.218 55.2708 249.019 54.9058L246.055 50.9588C247.467 49.3899 248.239 47.3464 248.218 45.2336C248.218 43.618 247.688 41.9807 247.58 40.4192C247.169 34.5097 252.275 29.2616 258.008 27.8628C262.487 26.7785 270.005 27.2231 273.889 30.0315C277.772 32.8398 271.357 36.4289 273.391 39.7144Z" fill="#EDB38C"/>
<path d="M269.616 33.3928C269.886 34.0976 268.902 34.6181 268.144 34.6181C266.662 34.6181 265.256 34.0434 263.817 33.9133C262.379 33.7832 260.626 34.3253 260.139 35.7241C259.956 36.6964 259.997 37.6976 260.258 38.6518C260.388 39.6277 260.15 40.8204 259.177 41.1999C258.365 40.1156 258.647 38.4783 257.662 37.6108C257.187 37.3172 256.641 37.1616 256.083 37.1616C255.525 37.1616 254.978 37.3172 254.503 37.6108C253.623 37.9366 252.88 38.5521 252.394 39.3566C251.42 41.3084 253.205 43.6939 252.48 45.8625C252.197 46.5346 251.777 47.1402 251.247 47.6408C250.668 48.3285 249.953 48.8895 249.149 49.289C248.743 49.482 248.291 49.5559 247.845 49.5021C247.398 49.4484 246.977 49.2693 246.628 48.9854C245.546 47.901 246.141 46.1227 245.86 44.6481C245.579 43.1734 244.226 41.8397 243.934 40.3108C243.827 39.4305 243.901 38.5375 244.151 37.6867C244.565 35.4509 245.34 33.2976 246.444 31.3109C248.495 28.1628 251.655 25.9055 255.293 24.9893C258.915 24.097 262.687 24.0045 266.349 24.7182C267.946 24.879 269.5 25.331 270.935 26.052C272.558 27.0278 274.062 28.6652 275.955 28.4917C275.446 28.9564 274.84 29.301 274.181 29.5001C275.058 29.9164 275.848 30.4981 276.507 31.2133C276.374 31.4167 276.194 31.5855 275.984 31.7062C275.773 31.8268 275.537 31.8957 275.295 31.9073C275.435 32.1177 275.521 32.3591 275.546 32.6105C275.571 32.8619 275.535 33.1157 275.44 33.3498C275.345 33.5839 275.195 33.7912 275.001 33.9537C274.808 34.1161 274.579 34.2288 274.332 34.282C273.532 34.3687 272.634 33.4904 271.812 33.3711C272.006 33.4796 272.234 33.7506 272.439 33.8808C271.952 34.0542 269.854 34.1193 269.616 33.3928Z" fill="#9E5E32"/>
<path d="M256.634 42.4903C256.634 42.5878 256.505 42.6312 256.418 42.577C256.378 42.5479 256.345 42.5105 256.321 42.4675C256.297 42.4245 256.282 42.3768 256.277 42.3276C256.151 41.9798 256.132 41.602 256.223 41.2433C256.251 41.1538 256.297 41.0711 256.358 41.0005C256.419 40.9298 256.494 40.8727 256.579 40.8329C256.664 40.7931 256.755 40.7714 256.849 40.7693C256.942 40.7671 257.035 40.7845 257.121 40.8204C257.254 40.51 257.281 40.1647 257.2 39.8371C257.119 39.5095 256.933 39.2174 256.671 39.0051C256.409 38.7929 256.086 38.6722 255.749 38.6612C255.412 38.6503 255.081 38.7497 254.806 38.9445C254.393 39.2872 254.089 39.7431 253.93 40.2566C253.752 40.658 253.689 41.1007 253.746 41.536C253.845 41.8903 254.019 42.2193 254.255 42.5011L255.001 43.5312C255.239 43.8674 255.531 44.2252 255.942 44.236C256.146 44.2208 256.339 44.1362 256.488 43.9962C256.638 43.8562 256.735 43.6692 256.764 43.4662C256.81 43.0557 256.747 42.6403 256.58 42.2626" fill="#C19272"/>
<path d="M254.611 44.4095C255.115 44.4472 255.618 44.3223 256.046 44.0531C256.474 43.7839 256.805 43.3845 256.991 42.9132C258.148 40.7445 258.429 37.9361 260.085 36.1904C262.107 34.0217 265.288 34.3362 268.09 34.3362C270.332 34.3359 272.566 34.0628 274.743 33.523C275.047 33.4872 275.342 33.3902 275.609 33.2377C275.875 33.0852 276.109 32.8803 276.295 32.6353C276.48 32.3903 276.615 32.1102 276.69 31.8119C276.766 31.5135 276.78 31.203 276.733 30.8989C276.83 27.8736 274.699 25.3146 272.406 23.6123C268.494 20.645 263.665 19.1519 258.765 19.3943C253.841 19.7214 249.184 21.7528 245.589 25.1412C243.505 26.935 242.037 29.3398 241.392 32.0157C241.11 33.7356 241.11 35.4898 241.392 37.2097C241.512 38.7297 241.877 40.2201 242.473 41.6228C244.853 46.2637 250.673 44.7132 254.611 44.4095Z" fill="#EF3900"/>
<path d="M251.247 21.6713C248.192 22.6172 245.497 24.4745 243.523 26.9953C242.554 28.264 241.924 29.7588 241.692 31.3389C241.459 32.9191 241.631 34.5327 242.192 36.0277C242.515 36.9313 243.179 37.6713 244.042 38.0879C244.653 38.2567 245.299 38.2507 245.907 38.0706C246.515 37.8904 247.061 37.5434 247.482 37.0686C249.267 35.2795 250.208 32.8073 252.025 30.9747C253.507 29.4892 255.368 28.8061 256.926 27.4832C257.609 26.9438 258.077 26.1782 258.248 25.3237C258.418 24.4692 258.279 23.5818 257.856 22.8206C256.493 20.4677 253.378 20.9231 251.247 21.6713Z" fill="#F8F8FE"/>
<path d="M255.953 52.0106V52.2925L255.758 52.4443C255.412 52.6193 255.05 52.7609 254.676 52.8672C253.797 50.2661 253.209 47.5748 252.924 44.8432C252.853 44.562 252.853 44.2678 252.924 43.9866C253.119 43.5203 254.233 42.9023 254.655 43.2926C254.914 43.542 254.655 45.7866 254.655 46.2203C254.793 48.2051 255.23 50.1575 255.953 52.0106V52.0106Z" fill="#681616"/>
<path d="M267.689 37.253C268.755 36.7205 269.94 36.4739 271.129 36.5373C271.703 36.5373 272.309 36.3747 272.319 35.7024V35.6373C271.936 35.6265 271.552 35.6483 271.173 35.7024C270.694 35.6591 270.213 35.6591 269.734 35.7024C268.854 35.8114 268.052 36.2585 267.495 36.9493C267.289 37.1662 267.484 37.3289 267.689 37.253Z" fill="#4C3729"/>
<path d="M267.939 38.9988C268.686 38.6407 269.501 38.4448 270.329 38.4241C270.762 38.3591 271.26 38.294 271.476 37.882C271.489 37.8627 271.496 37.8397 271.496 37.8162C271.495 37.7927 271.487 37.7701 271.472 37.7518C271.457 37.7334 271.437 37.7203 271.414 37.7145C271.392 37.7086 271.368 37.7103 271.346 37.7193C271.065 37.7844 270.838 37.9579 270.556 38.0446C270.275 38.1314 269.94 38.1747 269.626 38.2506C269.023 38.3934 268.448 38.6392 267.928 38.9771L267.939 38.9988Z" fill="#4C3729"/>
<path d="M269.907 38.3264C269.853 38.5866 269.68 39.2372 270.102 39.3023C270.524 39.3673 270.567 38.6951 270.513 38.4131L270.351 38.2505L270.167 38.3264L270.113 38.5433V38.7059V38.9119V38.8035V38.6734C270.113 38.5649 270.113 38.4457 270.048 38.3372L269.907 38.3264Z" fill="#4C3729"/>
<path d="M268.955 39.3132C269.267 39.4803 269.619 39.559 269.972 39.5409C270.232 39.5409 270.632 39.465 270.762 39.1939V39.1072C270.533 39.1535 270.309 39.2188 270.091 39.3023C269.754 39.3626 269.407 39.3171 269.096 39.1722C268.945 39.1722 268.869 39.259 268.955 39.3132Z" fill="#4C3729"/>
<path d="M269.68 39.9529C269.838 39.9704 269.998 39.9362 270.135 39.8553V39.7144C269.994 39.7144 269.864 39.7144 269.724 39.7144C269.692 39.7086 269.66 39.7157 269.633 39.734C269.607 39.7523 269.589 39.7803 269.583 39.8119C269.577 39.8436 269.584 39.8762 269.603 39.9026C269.621 39.9291 269.649 39.9472 269.68 39.9529V39.9529Z" fill="#4C3729"/>
</g>
<path d="M346.504 196H159.496C159.099 196 158.719 195.947 158.438 195.854C158.158 195.76 158 195.633 158 195.5C158 195.367 158.158 195.24 158.438 195.146C158.719 195.053 159.099 195 159.496 195H346.504C346.901 195 347.281 195.053 347.562 195.146C347.842 195.24 348 195.367 348 195.5C348 195.633 347.842 195.76 347.562 195.854C347.281 195.947 346.901 196 346.504 196Z" fill="#3F3D56"/>
<defs>
<clipPath id="clip0_480_12597">
<rect width="195" height="159.319" fill="white" transform="translate(0 0.680908)"/>
</clipPath>
<clipPath id="clip1_480_12597">
<rect width="195" height="175.638" fill="white" transform="translate(144 19.3617)"/>
</clipPath>
</defs>
</svg>
