<svg width="25" height="24" viewBox="0 0 25 24" fill="none" xmlns="http://www.w3.org/2000/svg">
<mask id="path-1-inside-1_6643_1766" fill="white">
<path d="M22.3183 22.9091V19.6363C22.3183 18.479 21.8586 17.3691 21.0402 16.5508C20.2219 15.7324 19.112 15.2727 17.9547 15.2727H9.22741C8.0701 15.2727 6.96019 15.7324 6.14185 16.5508C5.32351 17.3691 4.86377 18.479 4.86377 19.6363V22.9091"/>
</mask>
<path d="M20.8183 22.9091C20.8183 23.7375 21.4899 24.4091 22.3183 24.4091C23.1467 24.4091 23.8183 23.7375 23.8183 22.9091H20.8183ZM17.9547 15.2727V13.7727V15.2727ZM9.22741 15.2727V13.7727V15.2727ZM4.86377 19.6363H3.36377H4.86377ZM3.36377 22.9091C3.36377 23.7375 4.03534 24.4091 4.86377 24.4091C5.6922 24.4091 6.36377 23.7375 6.36377 22.9091H3.36377ZM23.8183 22.9091V19.6363H20.8183V22.9091H23.8183ZM23.8183 19.6363C23.8183 18.0812 23.2005 16.5898 22.1009 15.4901L19.9796 17.6114C20.5166 18.1485 20.8183 18.8769 20.8183 19.6363H23.8183ZM22.1009 15.4901C21.0012 14.3905 19.5098 13.7727 17.9547 13.7727V16.7727C18.7142 16.7727 19.4425 17.0744 19.9796 17.6114L22.1009 15.4901ZM17.9547 13.7727H9.22741V16.7727H17.9547V13.7727ZM9.22741 13.7727C7.67227 13.7727 6.18083 14.3905 5.08119 15.4901L7.20251 17.6114C7.73955 17.0744 8.46792 16.7727 9.22741 16.7727V13.7727ZM5.08119 15.4901C3.98154 16.5898 3.36377 18.0812 3.36377 19.6363H6.36377C6.36377 18.8769 6.66547 18.1485 7.20251 17.6114L5.08119 15.4901ZM3.36377 19.6363V22.9091H6.36377V19.6363H3.36377Z" fill="#8C8C8C" mask="url(#path-1-inside-1_6643_1766)"/>
<path d="M17.2029 7.63634C17.2029 9.6321 15.585 11.25 13.5892 11.25C11.5935 11.25 9.97559 9.6321 9.97559 7.63634C9.97559 5.64059 11.5935 4.02271 13.5892 4.02271C15.585 4.02271 17.2029 5.64059 17.2029 7.63634Z" stroke="#8C8C8C" stroke-width="1.5" stroke-linecap="round" stroke-linejoin="round"/>
</svg>
